Application of Geospatial Analysis Methods to Discover Thailand Drug Abuse at the Province Level
…
demand_wm_q <- demand_distribution %>%
  mutate(nb = st_contiguity(geometry),
         wt = st_weights(nb,
                         style = "W", allow_zero = TRUE),
         .before = 1) 

demand_wm_q

Simple feature collection with 75 features and 4 fields
Geometry type: GEOMETRY
Dimension:     XY
Bounding box:  xmin: 97.34336 ymin: 5.613038 xmax: 105.637 ymax: 20.46507
Geodetic CRS:  WGS 84
# A tibble: 75 × 5
   nb        wt        province_en   no_cases                           geometry
 * <nb>      <list>    <chr>            <dbl>                     <GEOMETRY [°]>
 1 <int [3]> <dbl [3]> Amnat Charoen    13831 POLYGON ((104.9598 16.28368, 104.…
 2 <int [3]> <dbl [3]> Ang Thong         5702 POLYGON ((100.3329 14.79905, 100.…
 3 <int [6]> <dbl [6]> Bangkok         109248 POLYGON ((100.6128 13.9552, 100.6…
 4 <int [5]> <dbl [5]> Buri Ram         19387 POLYGON ((102.9303 15.7952, 102.9…
 5 <int [8]> <dbl [8]> Chachoengsao     21184 POLYGON ((101.0575 13.97627, 101.…
 6 <int [4]> <dbl [4]> Chai Nat          4986 POLYGON ((100.1184 15.41258, 100.…
 7 <int [3]> <dbl [3]> Chaiyaphum       23302 POLYGON ((101.5601 16.72868, 101.…
 8 <int [5]> <dbl [5]> Chanthaburi      12277 MULTIPOLYGON (((102.2515 12.28964…
 9 <int [5]> <dbl [5]> Chiang Mai       45070 POLYGON ((99.52369 20.1376, 99.52…
10 <int [3]> <dbl [3]> Chiang Rai       27489 POLYGON ((99.96046 20.46503, 99.9…
# ℹ 65 more rows
…
supply_wm_q <- supply_distribution %>%
  mutate(nb = st_contiguity(geometry),
         wt = st_weights(nb,
                         style = "W", allow_zero = TRUE),
         .before = 1) 

supply_wm_q

Simple feature collection with 75 features and 4 fields
Geometry type: GEOMETRY
Dimension:     XY
Bounding box:  xmin: 97.34336 ymin: 5.613038 xmax: 105.637 ymax: 20.46507
Geodetic CRS:  WGS 84
# A tibble: 75 × 5
   nb        wt        province_en   no_cases                           geometry
 * <nb>      <list>    <chr>            <dbl>                     <GEOMETRY [°]>
 1 <int [3]> <dbl [3]> Amnat Charoen     2578 POLYGON ((104.9598 16.28368, 104.…
 2 <int [3]> <dbl [3]> Ang Thong         1835 POLYGON ((100.3329 14.79905, 100.…
 3 <int [6]> <dbl [6]> Bangkok          26294 POLYGON ((100.6128 13.9552, 100.6…
 4 <int [5]> <dbl [5]> Buri Ram          6179 POLYGON ((102.9303 15.7952, 102.9…
 5 <int [8]> <dbl [8]> Chachoengsao      4106 POLYGON ((101.0575 13.97627, 101.…
 6 <int [4]> <dbl [4]> Chai Nat          1676 POLYGON ((100.1184 15.41258, 100.…
 7 <int [3]> <dbl [3]> Chaiyaphum        6999 POLYGON ((101.5601 16.72868, 101.…
 8 <int [5]> <dbl [5]> Chanthaburi       2935 MULTIPOLYGON (((102.2515 12.28964…
 9 <int [5]> <dbl [5]> Chiang Mai       11554 POLYGON ((99.52369 20.1376, 99.52…
10 <int [3]> <dbl [3]> Chiang Rai        7441 POLYGON ((99.96046 20.46503, 99.9…
# ℹ 65 more rows
…
