Geospatial Data Science with R
…
4.2 Importing the aspatial data

Since listings data set is in csv file format, we will use read_csv() of readr package to import listing.csv as shown the code chunk below. The output R object is called listings and it is a tibble data frame.

listings <- read_csv("data/aspatial/listings.csv")

After importing the data file into R, it is important for us to examine if the data file has been imported correctly.

The code chunk below shows list() of Base R instead of glimpse() is used to do the job.

list(listings) 

[[1]]
# A tibble: 3,457 × 75
       id listing_url            scrape_id last_scraped source name  description
    <dbl> <chr>                      <dbl> <date>       <chr>  <chr> <lgl>      
 1  71609 https://www.airbnb.co…   2.02e13 2023-12-27   previ… Vill… NA         
 2  71896 https://www.airbnb.co…   2.02e13 2023-12-26   city … Home… NA         
 3  71903 https://www.airbnb.co…   2.02e13 2023-12-26   city … Home… NA         
 4 275343 https://www.airbnb.co…   2.02e13 2023-12-26   city … Rent… NA         
 5 275344 https://www.airbnb.co…   2.02e13 2023-12-26   city … Rent… NA         
 6 289234 https://www.airbnb.co…   2.02e13 2023-12-27   previ… Home… NA         
 7 294281 https://www.airbnb.co…   2.02e13 2023-12-27   city … Rent… NA         
 8 324945 https://www.airbnb.co…   2.02e13 2023-12-26   city … Rent… NA         
 9 330095 https://www.airbnb.co…   2.02e13 2023-12-26   city … Rent… NA         
10 369141 https://www.airbnb.co…   2.02e13 2023-12-27   city … Plac… NA         
# ℹ 3,447 more rows
# ℹ 68 more variables: neighborhood_overview <chr>, picture_url <chr>,
#   host_id <dbl>, host_url <chr>, host_name <chr>, host_since <date>,
#   host_location <chr>, host_about <chr>, host_response_time <chr>,
#   host_response_rate <chr>, host_acceptance_rate <chr>,
#   host_is_superhost <lgl>, host_thumbnail_url <chr>, host_picture_url <chr>,
#   host_neighbourhood <chr>, host_listings_count <dbl>, …
…
